…
``` r
nineteen_twentyone_county_lyme = read_csv("new_york_county_lyme.csv") %>% 
  janitor::clean_names() %>% 
  select(county_name, event_count,percent_rate ) %>% 
  rename(NAME = "county_name") %>% 
  mutate( data = "lyme")

print(nineteen_twentyone_county_lyme)
```

    ## # A tibble: 62 × 4
    ##    NAME      event_count percent_rate data 
    ##    <chr>           <dbl>        <dbl> <chr>
    ##  1 Queens            336          4.9 lyme 
    ##  2 Saratoga          494         70.8 lyme 
    ##  3 Greene            612        427.  lyme 
    ##  4 Niagara            10          1.6 lyme 
    ##  5 Allegany           59         42.3 lyme 
    ##  6 Bronx              78          1.8 lyme 
    ##  7 Ulster            657        122.  lyme 
    ##  8 Jefferson         170         49.7 lyme 
    ##  9 Orange            878         75.1 lyme 
    ## 10 Wayne             120         44.2 lyme 
    ## # ℹ 52 more rows
Tidy deer tick data

``` r
tick_surveillance = read_csv("./Deer_Tick_Surveillance__Adults__Oct_to_Dec__excluding_Powassan_virus__Beginning_2008_20241116.csv") %>% 
  janitor::clean_names() %>% 
  filter(year %in% 2019:2021 ) %>% 
  rename(NAME = "county") %>% 
  select(-total_sites_visited, -school_districts_2016_shp, -local_waterfront_revitalization_program_lwrp_communities, -new_york_zip_codes, -counties, -nys_senate_districts, -year, -a_phagocytophilum_percent, -b_microti_percent, -b_miyamotoi_percent) %>% 
mutate(data = "ticks")


print(tick_surveillance)
```

    ## # A tibble: 138 × 7
    ##    NAME       total_ticks_collected tick_population_density total_tested
    ##    <chr>                      <dbl>                   <dbl>        <dbl>
    ##  1 Albany                       366                    85.8          168
    ##  2 Chautauqua                   199                    36.7          107
    ##  3 Dutchess                     438                    66.8           51
    ##  4 Warren                        88                    13.8           87
    ##  5 Albany                       114                    37.2          103
    ##  6 Chemung                      271                   257.            50
    ##  7 Delaware                      75                    21.9           69
    ##  8 Tompkins                     131                    52.4           44
    ##  9 Oneida                       157                    78.5           50
    ## 10 Seneca                        51                    35.5           50
    ## # ℹ 128 more rows
    ## # ℹ 3 more variables: b_burgdorferi_percent <dbl>, county_centroid <chr>,
    ## #   data <chr>
…
Merging the data sets

``` r
# merging the excel sheets first 

NY_lyme_tick = full_join(tick_surveillance, nineteen_twentyone_county_lyme, by = "NAME") %>% 
  select(-data.x, -data.y)

print(NY_lyme_tick)
```

    ## # A tibble: 147 × 8
    ##    NAME       total_ticks_collected tick_population_density total_tested
    ##    <chr>                      <dbl>                   <dbl>        <dbl>
    ##  1 Albany                       366                    85.8          168
    ##  2 Chautauqua                   199                    36.7          107
    ##  3 Dutchess                     438                    66.8           51
    ##  4 Warren                        88                    13.8           87
    ##  5 Albany                       114                    37.2          103
    ##  6 Chemung                      271                   257.            50
    ##  7 Delaware                      75                    21.9           69
    ##  8 Tompkins                     131                    52.4           44
    ##  9 Oneida                       157                    78.5           50
    ## 10 Seneca                        51                    35.5           50
    ## # ℹ 137 more rows
    ## # ℹ 4 more variables: b_burgdorferi_percent <dbl>, county_centroid <chr>,
    ## #   event_count <dbl>, percent_rate <dbl>

``` r
# now merging the shape file with excel file 

NY_lyme_tick_county = NY_lyme_tick %>%
  left_join(ny_county, by = "NAME") %>% 
  janitor::clean_names()
# didn't delete the other parts from abbrev and later because they are part of the shapefile and if I delete I have to convert it to a dataframe making the shapefile no longer spatial. 

print(NY_lyme_tick_county)
```

    ## # A tibble: 147 × 23
    ##    name       total_ticks_collected tick_population_density total_tested
    ##    <chr>                      <dbl>                   <dbl>        <dbl>
    ##  1 Albany                       366                    85.8          168
    ##  2 Chautauqua                   199                    36.7          107
    ##  3 Dutchess                     438                    66.8           51
    ##  4 Warren                        88                    13.8           87
    ##  5 Albany                       114                    37.2          103
    ##  6 Chemung                      271                   257.            50
    ##  7 Delaware                      75                    21.9           69
    ##  8 Tompkins                     131                    52.4           44
    ##  9 Oneida                       157                    78.5           50
    ## 10 Seneca                        51                    35.5           50
    ## # ℹ 137 more rows
    ## # ℹ 19 more variables: b_burgdorferi_percent <dbl>, county_centroid <chr>,
    ## #   event_count <dbl>, percent_rate <dbl>, abbrev <chr>, gnis_id <chr>,
    ## #   fips_code <chr>, swis <chr>, nysp_zone <chr>, pop1990 <dbl>, pop2000 <dbl>,
    ## #   pop2010 <dbl>, pop2020 <dbl>, nyc <chr>, calc_sq_mi <dbl>, datemod <date>,
    ## #   shape_leng <dbl>, shape_area <dbl>, geometry <MULTIPOLYGON [m]>
…
