…
all_year_data
```

    ## # A tibble: 36 × 1
    ##    name      
    ##    <chr>     
    ##  1 Albany    
    ##  2 Allegany  
    ##  3 Cayuga    
    ##  4 Chautauqua
    ##  5 Clinton   
    ##  6 Columbia  
    ##  7 Delaware  
    ##  8 Dutchess  
    ##  9 Erie      
    ## 10 Franklin  
    ## # ℹ 26 more rows
…
